{
  "obtain-auth-token": {
    "username": "nico",
    "password": "nico"
  },
  "me": {
    "id": 2,
    "url": "http://localhost:8000/api/utilisateurs/2",
    "username": "Admin",
    "email": "Admin@admin.com",
    "first_name": "Admin",
    "last_name": "Admin",
    "is_superuser": true,
    "profile": {
      "classe": {
        "id": 1,
        "nom": "Seconde"
      },
      "pseudo_classe": ""
    }
  },
  "classes": [
    {
      "url": "http://localhost:8000/classes/1/",
      "id": 1,
      "nom": "2nde",
      "ordre": 0
    },
    {
      "url": "http://localhost:8000/classes/2/",
      "id": 2,
      "nom": "1ère ES",
      "ordre": 1
    },
    {
      "url": "http://localhost:8000/classes/3/",
      "id": 3,
      "nom": "1ère S",
      "ordre": 2
    },
    {
      "url": "http://localhost:8000/classes/4/",
      "id": 4,
      "nom": "Terminale ES",
      "ordre": 3
    },
    {
      "url": "http://localhost:8000/classes/5/",
      "id": 5,
      "nom": "Terminale S",
      "ordre": 4
    }
  ],
  "cours": [
    {
      "url": "http://localhost:8000/cours/1/",
      "id": 1,
      "nom": "Les Fractions",
      "video": "https://www.youtube.com/watch?v=8Ls1RqHCOPw",
      "contenu": "<p>Ici le <strong>contenu </strong>du <em>cours&nbsp;</em>sur les <em><strong><span style=\"color:#ff0000\">Fractions</span></strong></em>.</p>\r\n\r\n<p><span class=\"math-tex\">\\(x = {-b \\pm \\sqrt{b^2-4ac} \\over 2a}\\)</span></p>",
      "bilan": "<p>Ici le <strong>bilan&nbsp;</strong>du <em>cours&nbsp;</em>sur les <em><strong><span style=\"color:#ff0000\">Fractions</span></strong></em>.</p>",
      "methodes": "<p>Ici les&nbsp;<strong>methodes&nbsp;</strong>du <em>cours&nbsp;</em>sur les <em><strong><span style=\"color:#ff0000\">Fractions</span></strong></em>.</p>",
      "exercices": "<p>Ici les&nbsp;<strong>exercices&nbsp;</strong>du <em>cours&nbsp;</em>sur les <em><strong><span style=\"color:#ff0000\">Fractions</span></strong></em>.</p>"
    },
    {
      "url": "http://localhost:8000/cours/2/",
      "id": 2,
      "nom": "Les Fonctions",
      "video": "https://www.youtube.com/watch?v=kPRA0W1kECg",
      "contenu": "<p>Ici le&nbsp;<strong>contenu&nbsp;</strong>du <em>cours&nbsp;</em>sur les <em><strong>Fonctions</strong></em>.</p>\r\n\r\n<p><span class=\"math-tex\">\\(f(n) =\r\n\\begin{cases}\r\nn/2,  &amp; \\text{if $n$ is even} \\\\\r\n3n+1, &amp; \\text{if $n$ is odd}\r\n\\end{cases}\\)</span></p>",
      "bilan": "<p>Ici le&nbsp;<strong>bilan&nbsp;</strong>du <em>cours&nbsp;</em>sur les <em><strong>Fonctions</strong></em>.</p>",
      "methodes": "<p>Ici les&nbsp;<strong>methodes&nbsp;</strong>du <em>cours&nbsp;</em>sur les <em><strong>Fonctions</strong></em>.</p>",
      "exercices": "<p>Ici les&nbsp;<strong>exercices&nbsp;</strong>du <em>cours&nbsp;</em>sur les <em><strong>Fonctions</strong></em>.</p>"
    },
    {
      "url": "http://localhost:8000/cours/3/",
      "id": 3,
      "nom": "Les Dérivées",
      "video": "",
      "contenu": "<p>Ici le&nbsp;<strong>Contenu&nbsp;</strong>du <em>cours&nbsp;</em>sur les <em><strong>D&eacute;riv&eacute;es</strong></em>.</p>\r\n\r\n<p><span class=\"math-tex\">\\(\\frac d{dx}x\\dot x =  \\dot x^2 +  x\\ddot x\\)</span></p>",
      "bilan": "<p>Ici le <strong>Bilan&nbsp;</strong>du <em>cours&nbsp;</em>sur les <em><strong>D&eacute;riv&eacute;es</strong></em>.</p>",
      "methodes": "<p>Ici le&nbsp;<strong>Methodes&nbsp;</strong>du <em>cours&nbsp;</em>sur les <em><strong>D&eacute;riv&eacute;es</strong></em>.</p>",
      "exercices": "<p>Ici le&nbsp;<strong>exercices&nbsp;</strong>du <em>cours&nbsp;</em>sur les <em><strong>D&eacute;riv&eacute;es</strong></em>.</p>"
    },
    {
      "url": "http://localhost:8000/cours/4/",
      "id": 4,
      "nom": "Les Intégrales",
      "video": "",
      "contenu": "<p>Ici le&nbsp;<strong>contenu&nbsp;</strong>du <em>cours&nbsp;</em>sur les <em><strong>Int&eacute;grales</strong></em>.</p>\r\n\r\n<p><span class=\"math-tex\">\\(\\begin{array}{cc}\r\n\\mathrm{Bad} &amp; \\mathrm{Better} \\\\\r\n\\hline \\\\\r\n\\int\\int_S f(x)\\,dy\\,dx &amp; \\iint_S f(x)\\,dy\\,dx \\\\\r\n\\int\\int\\int_V f(x)\\,dz\\,dy\\,dx &amp; \\iiint_V f(x)\\,dz\\,dy\\,dx\r\n\\end{array}\\)</span></p>",
      "bilan": "<p>Ici le <strong>bilan&nbsp;</strong>du <em>cours&nbsp;</em>sur les <em><strong>Int&eacute;grales</strong></em>.</p>",
      "methodes": "<p>Ici les <strong>m&eacute;thodes </strong>du <em>cours&nbsp;</em>sur les <em><strong>Int&eacute;grales</strong></em>.</p>",
      "exercices": "<p>Ici les <strong>exercices&nbsp;</strong>du <em>cours&nbsp;</em>sur les <em><strong>Int&eacute;grales</strong></em>.</p>"
    }
  ],
  "classe-cours": [
    {
      "id": 1,
      "url": "http://localhost:8000/cours/1/",
      "nom": "Les Fractions"
    },
    {
      "id": 2,
      "url": "http://localhost:8000/cours/2/",
      "nom": "Les Fonctions"
    },
    {
      "id": 3,
      "url": "http://localhost:8000/cours/3/",
      "nom": "Les Dérivées"
    }
  ],
  "themes": [
    {
      "id": 4,
      "nom": "Intervalles",
      "fullname": "Seconde > Les nombres > Intervalles"
    },
    {
      "id": 5,
      "nom": "intervalles2",
      "fullname": "Premiere > Les fonctions > Fonctions Usuelles"
    }
  ],
  "qcm-seq": [
    {
      "userId": 2,
      "id": 1,
      "expiration": "2019-06-25T03:40:14.059Z",
      "theme": {
        "id": 4,
        "nom": "Intervalles",
        "fullname": "Seconde > Les nombres > Intervalles"
      }
    },
    {
      "seqId": 1,
      "url": "http://localhost:8000/qcms/1/",
      "id": 1,
      "niveau": 0,
      "question": "<p>Que vaut&nbsp;<span style=\"font-size:22px\"><span class=\"math-tex\">\\({12 * 56 \\over 3 * 4}\\)</span></span>&nbsp;?</p>",
      "reponse1": "<p><span style=\"font-size:22px\"><span class=\"math-tex\">\\(54\\)</span></span></p>",
      "reponse2": "<p><span style=\"font-size:22px\"><span class=\"math-tex\">\\(65\\)</span></span></p>",
      "reponse3": "<p><span style=\"font-size:22px\"><span class=\"math-tex\">\\(209\\)</span></span></p>",
      "reponse4": "<p><span style=\"font-size:22px\"><span class=\"math-tex\">\\(56\\)</span></span></p>",
      "cours": "http://localhost:8000/cours/1/"
    },
    {
      "themeId": 4,
      "url": "http://localhost:8000/qcms/1/",
      "id": 1,
      "niveau": 0,
      "question": "<p>Que vaut&nbsp;<span style=\"font-size:22px\"><span class=\"math-tex\">\\({12 * 56 \\over 3 * 4}\\)</span></span>&nbsp;?</p>",
      "reponse1": "<p><span style=\"font-size:22px\"><span class=\"math-tex\">\\(54\\)</span></span></p>",
      "reponse2": "<p><span style=\"font-size:22px\"><span class=\"math-tex\">\\(65\\)</span></span></p>",
      "reponse3": "<p><span style=\"font-size:22px\"><span class=\"math-tex\">\\(209\\)</span></span></p>",
      "reponse4": "<p><span style=\"font-size:22px\"><span class=\"math-tex\">\\(56\\)</span></span></p>",
      "cours": "http://localhost:8000/cours/1/"
    },
    {
      "themeId": 5,
      "url": "http://localhost:8000/qcms/1/",
      "id": 1,
      "niveau": 0,
      "question": "<p>Laquelle des fractions suivantes est plus petite que&nbsp;<span style=\"font-size:20px\"><span class=\"math-tex\">\\(45 \\over 98\\)</span></span>?</p>",
      "reponse1": "<p><span style=\"font-size:20px\"><span class=\"math-tex\">\\(3 \\over 4\\)</span></span></p>",
      "reponse2": "<p><span style=\"font-size:20px\"><span class=\"math-tex\">\\(78 \\over 34\\)</span></span></p>",
      "reponse3": "<p><span style=\"font-size:20px\"><span class=\"math-tex\">\\(47 \\over 98\\)</span></span></p>",
      "reponse4": "<p><span style=\"font-size:20px\"><span class=\"math-tex\">\\(1 \\over 8\\)</span></span></p>",
      "cours": "http://localhost:8000/cours/1/"
    },
    {
      "undefined": -1,
      "id": 2
    },
    {
      "1": -1,
      "id": 3
    }
  ]
}